^C:\ZLIB-1.2.7\ADLER32.C
/c /I..\..\.. /I..\..\masmx86 /Zi /nologo /W3 /WX- /O2 /Ob1 /Oy- /GL /D WIN32 /D _CRT_NONSTDC_NO_DEPRECATE /D _CRT_SECURE_NO_DEPRECATE /D _CRT_NONSTDC_NO_WARNINGS /D ZLIB_WINAPI /D _WINDLL /GF /Gm- /MD /GS- /Gy /fp:precise /Zc:wchar_t /Zc:forScope /FAcs /Fa"X86\ZLIBDLLRELEASEWITHOUTASM\TMP\\" /Fo"X86\ZLIBDLLRELEASEWITHOUTASM\TMP\\" /Fd"X86\ZLIBDLLRELEASEWITHOUTASM\VC110.PDB" /Gd /TC /analyze- C:\ZLIB-1.2.7\ADLER32.C
^C:\ZLIB-1.2.7\COMPRESS.C
/c /I..\..\.. /I..\..\masmx86 /Zi /nologo /W3 /WX- /O2 /Ob1 /Oy- /GL /D WIN32 /D _CRT_NONSTDC_NO_DEPRECATE /D _CRT_SECURE_NO_DEPRECATE /D _CRT_NONSTDC_NO_WARNINGS /D ZLIB_WINAPI /D _WINDLL /GF /Gm- /MD /GS- /Gy /fp:precise /Zc:wchar_t /Zc:forScope /FAcs /Fa"X86\ZLIBDLLRELEASEWITHOUTASM\TMP\\" /Fo"X86\ZLIBDLLRELEASEWITHOUTASM\TMP\\" /Fd"X86\ZLIBDLLRELEASEWITHOUTASM\VC110.PDB" /Gd /TC /analyze- C:\ZLIB-1.2.7\COMPRESS.C
^C:\ZLIB-1.2.7\CRC32.C
/c /I..\..\.. /I..\..\masmx86 /Zi /nologo /W3 /WX- /O2 /Ob1 /Oy- /GL /D WIN32 /D _CRT_NONSTDC_NO_DEPRECATE /D _CRT_SECURE_NO_DEPRECATE /D _CRT_NONSTDC_NO_WARNINGS /D ZLIB_WINAPI /D _WINDLL /GF /Gm- /MD /GS- /Gy /fp:precise /Zc:wchar_t /Zc:forScope /FAcs /Fa"X86\ZLIBDLLRELEASEWITHOUTASM\TMP\\" /Fo"X86\ZLIBDLLRELEASEWITHOUTASM\TMP\\" /Fd"X86\ZLIBDLLRELEASEWITHOUTASM\VC110.PDB" /Gd /TC /analyze- C:\ZLIB-1.2.7\CRC32.C
^C:\ZLIB-1.2.7\DEFLATE.C
/c /I..\..\.. /I..\..\masmx86 /Zi /nologo /W3 /WX- /O2 /Ob1 /Oy- /GL /D WIN32 /D _CRT_NONSTDC_NO_DEPRECATE /D _CRT_SECURE_NO_DEPRECATE /D _CRT_NONSTDC_NO_WARNINGS /D ZLIB_WINAPI /D _WINDLL /GF /Gm- /MD /GS- /Gy /fp:precise /Zc:wchar_t /Zc:forScope /FAcs /Fa"X86\ZLIBDLLRELEASEWITHOUTASM\TMP\\" /Fo"X86\ZLIBDLLRELEASEWITHOUTASM\TMP\\" /Fd"X86\ZLIBDLLRELEASEWITHOUTASM\VC110.PDB" /Gd /TC /analyze- C:\ZLIB-1.2.7\DEFLATE.C
^C:\ZLIB-1.2.7\GZCLOSE.C
/c /I..\..\.. /I..\..\masmx86 /Zi /nologo /W3 /WX- /O2 /Ob1 /Oy- /GL /D WIN32 /D _CRT_NONSTDC_NO_DEPRECATE /D _CRT_SECURE_NO_DEPRECATE /D _CRT_NONSTDC_NO_WARNINGS /D ZLIB_WINAPI /D _WINDLL /GF /Gm- /MD /GS- /Gy /fp:precise /Zc:wchar_t /Zc:forScope /FAcs /Fa"X86\ZLIBDLLRELEASEWITHOUTASM\TMP\\" /Fo"X86\ZLIBDLLRELEASEWITHOUTASM\TMP\\" /Fd"X86\ZLIBDLLRELEASEWITHOUTASM\VC110.PDB" /Gd /TC /analyze- C:\ZLIB-1.2.7\GZCLOSE.C
^C:\ZLIB-1.2.7\GZLIB.C
/c /I..\..\.. /I..\..\masmx86 /Zi /nologo /W3 /WX- /O2 /Ob1 /Oy- /GL /D WIN32 /D _CRT_NONSTDC_NO_DEPRECATE /D _CRT_SECURE_NO_DEPRECATE /D _CRT_NONSTDC_NO_WARNINGS /D ZLIB_WINAPI /D _WINDLL /GF /Gm- /MD /GS- /Gy /fp:precise /Zc:wchar_t /Zc:forScope /FAcs /Fa"X86\ZLIBDLLRELEASEWITHOUTASM\TMP\\" /Fo"X86\ZLIBDLLRELEASEWITHOUTASM\TMP\\" /Fd"X86\ZLIBDLLRELEASEWITHOUTASM\VC110.PDB" /Gd /TC /analyze- C:\ZLIB-1.2.7\GZLIB.C
^C:\ZLIB-1.2.7\GZREAD.C
/c /I..\..\.. /I..\..\masmx86 /Zi /nologo /W3 /WX- /O2 /Ob1 /Oy- /GL /D WIN32 /D _CRT_NONSTDC_NO_DEPRECATE /D _CRT_SECURE_NO_DEPRECATE /D _CRT_NONSTDC_NO_WARNINGS /D ZLIB_WINAPI /D _WINDLL /GF /Gm- /MD /GS- /Gy /fp:precise /Zc:wchar_t /Zc:forScope /FAcs /Fa"X86\ZLIBDLLRELEASEWITHOUTASM\TMP\\" /Fo"X86\ZLIBDLLRELEASEWITHOUTASM\TMP\\" /Fd"X86\ZLIBDLLRELEASEWITHOUTASM\VC110.PDB" /Gd /TC /analyze- C:\ZLIB-1.2.7\GZREAD.C
^C:\ZLIB-1.2.7\GZWRITE.C
/c /I..\..\.. /I..\..\masmx86 /Zi /nologo /W3 /WX- /O2 /Ob1 /Oy- /GL /D WIN32 /D _CRT_NONSTDC_NO_DEPRECATE /D _CRT_SECURE_NO_DEPRECATE /D _CRT_NONSTDC_NO_WARNINGS /D ZLIB_WINAPI /D _WINDLL /GF /Gm- /MD /GS- /Gy /fp:precise /Zc:wchar_t /Zc:forScope /FAcs /Fa"X86\ZLIBDLLRELEASEWITHOUTASM\TMP\\" /Fo"X86\ZLIBDLLRELEASEWITHOUTASM\TMP\\" /Fd"X86\ZLIBDLLRELEASEWITHOUTASM\VC110.PDB" /Gd /TC /analyze- C:\ZLIB-1.2.7\GZWRITE.C
^C:\ZLIB-1.2.7\INFBACK.C
/c /I..\..\.. /I..\..\masmx86 /Zi /nologo /W3 /WX- /O2 /Ob1 /Oy- /GL /D WIN32 /D _CRT_NONSTDC_NO_DEPRECATE /D _CRT_SECURE_NO_DEPRECATE /D _CRT_NONSTDC_NO_WARNINGS /D ZLIB_WINAPI /D _WINDLL /GF /Gm- /MD /GS- /Gy /fp:precise /Zc:wchar_t /Zc:forScope /FAcs /Fa"X86\ZLIBDLLRELEASEWITHOUTASM\TMP\\" /Fo"X86\ZLIBDLLRELEASEWITHOUTASM\TMP\\" /Fd"X86\ZLIBDLLRELEASEWITHOUTASM\VC110.PDB" /Gd /TC /analyze- C:\ZLIB-1.2.7\INFBACK.C
^C:\ZLIB-1.2.7\INFFAST.C
/c /I..\..\.. /I..\..\masmx86 /Zi /nologo /W3 /WX- /O2 /Ob1 /Oy- /GL /D WIN32 /D _CRT_NONSTDC_NO_DEPRECATE /D _CRT_SECURE_NO_DEPRECATE /D _CRT_NONSTDC_NO_WARNINGS /D ZLIB_WINAPI /D _WINDLL /GF /Gm- /MD /GS- /Gy /fp:precise /Zc:wchar_t /Zc:forScope /FAcs /Fa"X86\ZLIBDLLRELEASEWITHOUTASM\TMP\\" /Fo"X86\ZLIBDLLRELEASEWITHOUTASM\TMP\\" /Fd"X86\ZLIBDLLRELEASEWITHOUTASM\VC110.PDB" /Gd /TC /analyze- C:\ZLIB-1.2.7\INFFAST.C
^C:\ZLIB-1.2.7\INFLATE.C
/c /I..\..\.. /I..\..\masmx86 /Zi /nologo /W3 /WX- /O2 /Ob1 /Oy- /GL /D WIN32 /D _CRT_NONSTDC_NO_DEPRECATE /D _CRT_SECURE_NO_DEPRECATE /D _CRT_NONSTDC_NO_WARNINGS /D ZLIB_WINAPI /D _WINDLL /GF /Gm- /MD /GS- /Gy /fp:precise /Zc:wchar_t /Zc:forScope /FAcs /Fa"X86\ZLIBDLLRELEASEWITHOUTASM\TMP\\" /Fo"X86\ZLIBDLLRELEASEWITHOUTASM\TMP\\" /Fd"X86\ZLIBDLLRELEASEWITHOUTASM\VC110.PDB" /Gd /TC /analyze- C:\ZLIB-1.2.7\INFLATE.C
^C:\ZLIB-1.2.7\INFTREES.C
/c /I..\..\.. /I..\..\masmx86 /Zi /nologo /W3 /WX- /O2 /Ob1 /Oy- /GL /D WIN32 /D _CRT_NONSTDC_NO_DEPRECATE /D _CRT_SECURE_NO_DEPRECATE /D _CRT_NONSTDC_NO_WARNINGS /D ZLIB_WINAPI /D _WINDLL /GF /Gm- /MD /GS- /Gy /fp:precise /Zc:wchar_t /Zc:forScope /FAcs /Fa"X86\ZLIBDLLRELEASEWITHOUTASM\TMP\\" /Fo"X86\ZLIBDLLRELEASEWITHOUTASM\TMP\\" /Fd"X86\ZLIBDLLRELEASEWITHOUTASM\VC110.PDB" /Gd /TC /analyze- C:\ZLIB-1.2.7\INFTREES.C
^C:\ZLIB-1.2.7\CONTRIB\MINIZIP\IOAPI.C
/c /I..\..\.. /I..\..\masmx86 /Zi /nologo /W3 /WX- /O2 /Ob1 /Oy- /GL /D WIN32 /D _CRT_NONSTDC_NO_DEPRECATE /D _CRT_SECURE_NO_DEPRECATE /D _CRT_NONSTDC_NO_WARNINGS /D ZLIB_WINAPI /D _WINDLL /GF /Gm- /MD /GS- /Gy /fp:precise /Zc:wchar_t /Zc:forScope /FAcs /Fa"X86\ZLIBDLLRELEASEWITHOUTASM\TMP\\" /Fo"X86\ZLIBDLLRELEASEWITHOUTASM\TMP\\" /Fd"X86\ZLIBDLLRELEASEWITHOUTASM\VC110.PDB" /Gd /TC /analyze- C:\ZLIB-1.2.7\CONTRIB\MINIZIP\IOAPI.C
^C:\ZLIB-1.2.7\CONTRIB\MINIZIP\IOWIN32.C
/c /I..\..\.. /I..\..\masmx86 /Zi /nologo /W3 /WX- /O2 /Ob1 /Oy- /GL /D WIN32 /D _CRT_NONSTDC_NO_DEPRECATE /D _CRT_SECURE_NO_DEPRECATE /D _CRT_NONSTDC_NO_WARNINGS /D ZLIB_WINAPI /D _WINDLL /GF /Gm- /MD /GS- /Gy /fp:precise /Zc:wchar_t /Zc:forScope /FAcs /Fa"X86\ZLIBDLLRELEASEWITHOUTASM\TMP\\" /Fo"X86\ZLIBDLLRELEASEWITHOUTASM\TMP\\" /Fd"X86\ZLIBDLLRELEASEWITHOUTASM\VC110.PDB" /Gd /TC /analyze- C:\ZLIB-1.2.7\CONTRIB\MINIZIP\IOWIN32.C
^C:\ZLIB-1.2.7\TREES.C
/c /I..\..\.. /I..\..\masmx86 /Zi /nologo /W3 /WX- /O2 /Ob1 /Oy- /GL /D WIN32 /D _CRT_NONSTDC_NO_DEPRECATE /D _CRT_SECURE_NO_DEPRECATE /D _CRT_NONSTDC_NO_WARNINGS /D ZLIB_WINAPI /D _WINDLL /GF /Gm- /MD /GS- /Gy /fp:precise /Zc:wchar_t /Zc:forScope /FAcs /Fa"X86\ZLIBDLLRELEASEWITHOUTASM\TMP\\" /Fo"X86\ZLIBDLLRELEASEWITHOUTASM\TMP\\" /Fd"X86\ZLIBDLLRELEASEWITHOUTASM\VC110.PDB" /Gd /TC /analyze- C:\ZLIB-1.2.7\TREES.C
^C:\ZLIB-1.2.7\UNCOMPR.C
/c /I..\..\.. /I..\..\masmx86 /Zi /nologo /W3 /WX- /O2 /Ob1 /Oy- /GL /D WIN32 /D _CRT_NONSTDC_NO_DEPRECATE /D _CRT_SECURE_NO_DEPRECATE /D _CRT_NONSTDC_NO_WARNINGS /D ZLIB_WINAPI /D _WINDLL /GF /Gm- /MD /GS- /Gy /fp:precise /Zc:wchar_t /Zc:forScope /FAcs /Fa"X86\ZLIBDLLRELEASEWITHOUTASM\TMP\\" /Fo"X86\ZLIBDLLRELEASEWITHOUTASM\TMP\\" /Fd"X86\ZLIBDLLRELEASEWITHOUTASM\VC110.PDB" /Gd /TC /analyze- C:\ZLIB-1.2.7\UNCOMPR.C
^C:\ZLIB-1.2.7\CONTRIB\MINIZIP\UNZIP.C
/c /I..\..\.. /I..\..\masmx86 /Zi /nologo /W3 /WX- /O2 /Ob1 /Oy- /GL /D WIN32 /D _CRT_NONSTDC_NO_DEPRECATE /D _CRT_SECURE_NO_DEPRECATE /D _CRT_NONSTDC_NO_WARNINGS /D ZLIB_WINAPI /D _WINDLL /GF /Gm- /MD /GS- /Gy /fp:precise /Zc:wchar_t /Zc:forScope /FAcs /Fa"X86\ZLIBDLLRELEASEWITHOUTASM\TMP\\" /Fo"X86\ZLIBDLLRELEASEWITHOUTASM\TMP\\" /Fd"X86\ZLIBDLLRELEASEWITHOUTASM\VC110.PDB" /Gd /TC /analyze- C:\ZLIB-1.2.7\CONTRIB\MINIZIP\UNZIP.C
^C:\ZLIB-1.2.7\CONTRIB\MINIZIP\ZIP.C
/c /I..\..\.. /I..\..\masmx86 /Zi /nologo /W3 /WX- /O2 /Ob1 /Oy- /GL /D WIN32 /D _CRT_NONSTDC_NO_DEPRECATE /D _CRT_SECURE_NO_DEPRECATE /D _CRT_NONSTDC_NO_WARNINGS /D ZLIB_WINAPI /D _WINDLL /GF /Gm- /MD /GS- /Gy /fp:precise /Zc:wchar_t /Zc:forScope /FAcs /Fa"X86\ZLIBDLLRELEASEWITHOUTASM\TMP\\" /Fo"X86\ZLIBDLLRELEASEWITHOUTASM\TMP\\" /Fd"X86\ZLIBDLLRELEASEWITHOUTASM\VC110.PDB" /Gd /TC /analyze- C:\ZLIB-1.2.7\CONTRIB\MINIZIP\ZIP.C
^C:\ZLIB-1.2.7\ZUTIL.C
/c /I..\..\.. /I..\..\masmx86 /Zi /nologo /W3 /WX- /O2 /Ob1 /Oy- /GL /D WIN32 /D _CRT_NONSTDC_NO_DEPRECATE /D _CRT_SECURE_NO_DEPRECATE /D _CRT_NONSTDC_NO_WARNINGS /D ZLIB_WINAPI /D _WINDLL /GF /Gm- /MD /GS- /Gy /fp:precise /Zc:wchar_t /Zc:forScope /FAcs /Fa"X86\ZLIBDLLRELEASEWITHOUTASM\TMP\\" /Fo"X86\ZLIBDLLRELEASEWITHOUTASM\TMP\\" /Fd"X86\ZLIBDLLRELEASEWITHOUTASM\VC110.PDB" /Gd /TC /analyze- C:\ZLIB-1.2.7\ZUTIL.C
